- HW 3 Kristin Abijaoude
…
Debt in Trillions

::: panel-tabset ## Debt in Trillions: Read Data

Code

debts <- read_xlsx("/Users/kristinabijaoude/Documents/GitHub/Github Help/601_Fall_2022/posts/_data/debt_in_trillions.xlsx")
debts

# A tibble: 74 × 8
   `Year and Quarter` Mortgage HE Revolvin…¹ Auto …² Credi…³ Stude…⁴ Other Total
   <chr>                 <dbl>         <dbl>   <dbl>   <dbl>   <dbl> <dbl> <dbl>
 1 03:Q1                  4.94         0.242   0.641   0.688   0.241 0.478  7.23
 2 03:Q2                  5.08         0.26    0.622   0.693   0.243 0.486  7.38
 3 03:Q3                  5.18         0.269   0.684   0.693   0.249 0.477  7.56
 4 03:Q4                  5.66         0.302   0.704   0.698   0.253 0.449  8.07
 5 04:Q1                  5.84         0.328   0.72    0.695   0.260 0.446  8.29
 6 04:Q2                  5.97         0.367   0.743   0.697   0.263 0.423  8.46
 7 04:Q3                  6.21         0.426   0.751   0.706   0.33  0.41   8.83
 8 04:Q4                  6.36         0.468   0.728   0.717   0.346 0.423  9.04
 9 05:Q1                  6.51         0.502   0.725   0.71    0.364 0.394  9.21
10 05:Q2                  6.70         0.528   0.774   0.717   0.374 0.402  9.49
# … with 64 more rows, and abbreviated variable names ¹​`HE Revolving`,
#   ²​`Auto Loan`, ³​`Credit Card`, ⁴​`Student Loan`
Now we are going to look at another dataset about debt held by Americans in trillions of dollars from 2003 to 2021- the following types of debt listed are Mortgages, Home Equity Revolving loans, Auto loans, Credit Card debt, Student loans, and other loans.

::: panel-tabset ## Debt in Trillions: Tidy and Mutate Data

Code

debt_tidy <- debts %>%
  mutate(date = parse_date_time(`Year and Quarter`, orders="yq")) %>%
  select(-c(`Year and Quarter`)) %>%
  relocate(`date`, .before = `Mortgage`) %>%
  rename("Date" = "date")
  
debt_tidy

# A tibble: 74 × 8
   Date                Mortgage HE Revolvi…¹ Auto …² Credi…³ Stude…⁴ Other Total
   <dttm>                 <dbl>        <dbl>   <dbl>   <dbl>   <dbl> <dbl> <dbl>
 1 2003-01-01 00:00:00     4.94        0.242   0.641   0.688   0.241 0.478  7.23
 2 2003-04-01 00:00:00     5.08        0.26    0.622   0.693   0.243 0.486  7.38
 3 2003-07-01 00:00:00     5.18        0.269   0.684   0.693   0.249 0.477  7.56
 4 2003-10-01 00:00:00     5.66        0.302   0.704   0.698   0.253 0.449  8.07
 5 2004-01-01 00:00:00     5.84        0.328   0.72    0.695   0.260 0.446  8.29
 6 2004-04-01 00:00:00     5.97        0.367   0.743   0.697   0.263 0.423  8.46
 7 2004-07-01 00:00:00     6.21        0.426   0.751   0.706   0.33  0.41   8.83
 8 2004-10-01 00:00:00     6.36        0.468   0.728   0.717   0.346 0.423  9.04
 9 2005-01-01 00:00:00     6.51        0.502   0.725   0.71    0.364 0.394  9.21
10 2005-04-01 00:00:00     6.70        0.528   0.774   0.717   0.374 0.402  9.49
# … with 64 more rows, and abbreviated variable names ¹​`HE Revolving`,
#   ²​`Auto Loan`, ³​`Credit Card`, ⁴​`Student Loan`
…
Code

# pivot longer with pivot_longer
debt_pivot <- pivot_longer(debt_tidy, cols = Mortgage:Other, names_to = "type", values_to = "debt") %>%
  select(-c(Total)) %>%
  mutate("Type of Loan" = as.factor(type)) %>%
  select(-c(type))
debt_pivot

# A tibble: 444 × 3
   Date                 debt `Type of Loan`
   <dttm>              <dbl> <fct>         
 1 2003-01-01 00:00:00 4.94  Mortgage      
 2 2003-01-01 00:00:00 0.242 HE Revolving  
 3 2003-01-01 00:00:00 0.641 Auto Loan     
 4 2003-01-01 00:00:00 0.688 Credit Card   
 5 2003-01-01 00:00:00 0.241 Student Loan  
 6 2003-01-01 00:00:00 0.478 Other         
 7 2003-04-01 00:00:00 5.08  Mortgage      
 8 2003-04-01 00:00:00 0.26  HE Revolving  
 9 2003-04-01 00:00:00 0.622 Auto Loan     
10 2003-04-01 00:00:00 0.693 Credit Card   
# … with 434 more rows
…
